Third sem/CA/mux.vcd
$date
  Tue Mar 05 11:26:04 2024
$end
$version
  GHDL v0
$end
$timescale
  1 fs
$end
$var reg 8 ! s[7:0] $end
$var reg 3 " i[2:0] $end
$var reg 1 # y $end
$scope module mux_8x1 $end
$var reg 3 $ i[2:0] $end
$var reg 8 % s[7:0] $end
$var reg 1 & y $end
$upscope $end
$enddefinitions $end
#0
b00000001 !
b000 "
1#
b000 $
b00000001 %
1&
#1000000
b00000010 !
b001 "
b001 $
b00000010 %
#2000000
b00000100 !
b010 "
b010 $
b00000100 %
#3000000
b00001000 !
b011 "
b011 $
b00001000 %
#4000000
b00010000 !
b100 "
b100 $
b00010000 %
#5000000
b00100000 !
b101 "
b101 $
b00100000 %
#6000000
b01000000 !
b110 "
b110 $
b01000000 %
#7000000
b10000000 !
b111 "
b111 $
b10000000 %
